<Qucs Dataset 0.0.19>
<indep frequency 301>
  +1.00000000000000000000e+004
  +1.02329299228075415158e+004
  +1.04712854805089955335e+004
  +1.07151930523760638607e+004
  +1.09647819614318505046e+004
  +1.12201845430196335656e+004
  +1.14815362149688280624e+004
  +1.17489755493952943652e+004
  +1.20226443461741291685e+004
  +1.23026877081238144456e+004
  +1.25892541179416730301e+004
  +1.28824955169313398073e+004
  +1.31825673855640707188e+004
  +1.34896288259165357886e+004
  +1.38038426460288483213e+004
  +1.41253754462275410333e+004
  +1.44543977074592748977e+004
  +1.47910838816820742068e+004
  +1.51356124843620800675e+004
  +1.54881661891248131724e+004
  +1.58489319246111335815e+004
  +1.62181009735892985191e+004
  +1.65958690743756051234e+004
  +1.69824365246174420463e+004
  +1.73780082874937543238e+004
  +1.77827941003892265144e+004
  +1.81970085860998333374e+004
  +1.86208713666286712396e+004
  +1.90546071796324722527e+004
  +1.94984459975804529677e+004
  +1.99526231496887958201e+004
  +2.04173794466952931543e+004
  +2.08929613085403907462e+004
  +2.13796208950223226566e+004
  +2.18776162394955244963e+004
  +2.23872113856833930186e+004
  +2.29086765276777259714e+004
  +2.34422881531992206874e+004
  +2.39883291901949050953e+004
  +2.45470891568503029703e+004
  +2.51188643150958014303e+004
  +2.57039578276886386448e+004
  +2.63026799189538178325e+004
  +2.69153480392691562884e+004
  +2.75422870333816645143e+004
  +2.81838293126445387315e+004
  +2.88403150312660545751e+004
  +2.95120922666638580267e+004
  +3.01995172040201578056e+004
  +3.09029543251359064016e+004
  +3.16227766016837922507e+004
  +3.23593656929628268699e+004
  +3.31131121482591042877e+004
  +3.38844156139202459599e+004
  +3.46736850452531652991e+004
  +3.54813389233575435355e+004
  +3.63078054770101371105e+004
  +3.71535229097172486945e+004
  +3.80189396320561136235e+004
  +3.89045144994280562969e+004
  +3.98107170553497198853e+004
  +4.07380277804112702142e+004
  +4.16869383470335378661e+004
  +4.26579518801592639647e+004
  +4.36515832240165909752e+004
  +4.46683592150963013410e+004
  +4.57088189614875009283e+004
  +4.67735141287198057398e+004
  +4.78630092322638301994e+004
  +4.89778819368446129374e+004
  +5.01187233627272289596e+004
  +5.12861383991364782560e+004
  +5.24807460249772484531e+004
  +5.37031796370252632187e+004
  +5.49540873857624465018e+004
  +5.62341325190349016339e+004
  +5.75439937337156879948e+004
  +5.88843655355588780367e+004
  +6.02559586074357721373e+004
  +6.16595001861482014647e+004
  +6.30957344480193132767e+004
  +6.45654229034655363648e+004
  +6.60693448007595870877e+004
  +6.76082975391981599387e+004
  +6.91830970918936363887e+004
  +7.07945784384137805318e+004
  +7.24435960074989852728e+004
  +7.41310241300917259650e+004
  +7.58577575029183790321e+004
  +7.76247116628691728693e+004
  +7.94328234724281355739e+004
  +8.12830516164098953595e+004
  +8.31763771102670725668e+004
  +8.51138038202376483241e+004
  +8.70963589956080541015e+004
  +8.91250938133745366940e+004
  +9.12010839355909411097e+004
  +9.33254300796990719391e+004
  +9.54992586021435854491e+004
  +9.77237220955810480518e+004
  +9.99999999999999854481e+004
  +1.02329299228075367864e+005
  +1.04712854805089955335e+005
  +1.07151930523760631331e+005
  +1.09647819614318475942e+005
  +1.12201845430196306552e+005
  +1.14815362149688240606e+005
  +1.17489755493952950928e+005
  +1.20226443461741277133e+005
  +1.23026877081238126266e+005
  +1.25892541179416686646e+005
  +1.28824955169313339866e+005
  +1.31825673855640692636e+005
  +1.34896288259165361524e+005
  +1.38038426460288465023e+005
  +1.41253754462275392143e+005
  +1.44543977074592694407e+005
  +1.47910838816820731154e+005
  +1.51356124843620782485e+005
  +1.54881661891248106258e+005
  +1.58489319246111292159e+005
  +1.62181009735892992467e+005
  +1.65958690743756043958e+005
  +1.69824365246174420463e+005
  +1.73780082874937477754e+005
  +1.77827941003892221488e+005
  +1.81970085860998340650e+005
  +1.86208713666286726948e+005
  +1.90546071796324657043e+005
  +1.94984459975804464193e+005
  +1.99526231496887863614e+005
  +2.04173794466952938819e+005
  +2.08929613085403922014e+005
  +2.13796208950223168358e+005
  +2.18776162394955172203e+005
  +2.23872113856833864702e+005
  +2.29086765276777266990e+005
  +2.34422881531992141390e+005
  +2.39883291901948978193e+005
  +2.45470891568502935115e+005
  +2.51188643150957999751e+005
  +2.57039578276886342792e+005
  +2.63026799189538112842e+005
  +2.69153480392691504676e+005
  +2.75422870333816506900e+005
  +2.81838293126445380040e+005
  +2.88403150312660553027e+005
  +2.95120922666638507508e+005
  +3.01995172040201490745e+005
  +3.09029543251358903944e+005
  +3.16227766016837907955e+005
  +3.23593656929628166836e+005
  +3.31131121482590970118e+005
  +3.38844156139202415943e+005
  +3.46736850452531420160e+005
  +3.54813389233575435355e+005
  +3.63078054770101269241e+005
  +3.71535229097172385082e+005
  +3.80189396320561005268e+005
  +3.89045144994280533865e+005
  +3.98107170553497213405e+005
  +4.07380277804112585727e+005
  +4.16869383470335276797e+005
  +4.26579518801592465024e+005
  +4.36515832240165909752e+005
  +4.46683592150963027962e+005
  +4.57088189614874892868e+005
  +4.67735141287198057398e+005
  +4.78630092322638141923e+005
  +4.89778819368446129374e+005
  +5.01187233627272187732e+005
  +5.12861383991364680696e+005
  +5.24807460249772411771e+005
  +5.37031796370252384804e+005
  +5.49540873857624246739e+005
  +5.62341325190348667093e+005
  +5.75439937337156967260e+005
  +5.88843655355588882230e+005
  +6.02559586074357619509e+005
  +6.16595001861482043751e+005
  +6.30957344480193103664e+005
  +6.45654229034655261785e+005
  +6.60693448007595608942e+005
  +6.76082975391981308348e+005
  +6.91830970918935956433e+005
  +7.07945784384137950838e+005
  +7.24435960074990056455e+005
  +7.41310241300917463377e+005
  +7.58577575029183644801e+005
  +7.76247116628691437654e+005
  +7.94328234724281239323e+005
  +8.12830516164098866284e+005
  +8.31763771102670580149e+005
  +8.51138038202375872061e+005
  +8.70963589956079958938e+005
  +8.91250938133745570667e+005
  +9.12010839355909731239e+005
  +9.33254300796990864910e+005
  +9.54992586021435679868e+005
  +9.77237220955810393207e+005
  +9.99999999999999534339e+005
  +1.02329299228075356223e+006
  +1.04712854805089894217e+006
  +1.07151930523760570213e+006
  +1.09647819614318502136e+006
  +1.12201845430196332745e+006
  +1.14815362149688252248e+006
  +1.17489755493952916004e+006
  +1.20226443461741250940e+006
  +1.23026877081238105893e+006
  +1.25892541179416654631e+006
  +1.28824955169313307852e+006
  +1.31825673855640622787e+006
  +1.34896288259165268391e+006
  +1.38038426460288488306e+006
  +1.41253754462275421247e+006
  +1.44543977074592723511e+006
  +1.47910838816820690408e+006
  +1.51356124843620765023e+006
  +1.54881661891248053871e+006
  +1.58489319246111251414e+006
  +1.62181009735892899334e+006
  +1.65958690743755945005e+006
  +1.69824365246174437925e+006
  +1.73780082874937541783e+006
  +1.77827941003892244771e+006
  +1.81970085860998299904e+006
  +1.86208713666286692023e+006
  +1.90546071796324639581e+006
  +1.94984459975804411806e+006
  +1.99526231496887817048e+006
  +2.04173794466952793300e+006
  +2.08929613085403759032e+006
  +2.13796208950223168358e+006
  +2.18776162394955242053e+006
  +2.23872113856833940372e+006
  +2.29086765276777232066e+006
  +2.34422881531992135569e+006
  +2.39883291901948908344e+006
  +2.45470891568502876908e+006
  +2.51188643150957813486e+006
  +2.57039578276886185631e+006
  +2.63026799189538182691e+006
  +2.69153480392691586167e+006
  +2.75422870333816623315e+006
  +2.81838293126445310190e+006
  +2.88403150312660494819e+006
  +2.95120922666638437659e+006
  +3.01995172040201444179e+006
  +3.09029543251358857378e+006
  +3.16227766016837675124e+006
  +3.23593656929627945647e+006
  +3.31131121482591098174e+006
  +3.38844156139202462509e+006
  +3.46736850452531548217e+006
  +3.54813389233575342223e+006
  +3.63078054770101187751e+006
  +3.71535229097172291949e+006
  +3.80189396320560947061e+006
  +3.89045144994280301034e+006
  +3.98107170553496945649e+006
  +4.07380277804112713784e+006
  +4.16869383470335323364e+006
  +4.26579518801592569798e+006
  +4.36515832240165863186e+006
  +4.46683592150962911546e+006
  +4.57088189614874776453e+006
  +4.67735141287197917700e+006
  +4.78630092322637978941e+006
  +4.89778819368445780128e+006
  +5.01187233627271838486e+006
  +5.12861383991364762187e+006
  +5.24807460249772481620e+006
  +5.37031796370252594352e+006
  +5.49540873857624363154e+006
  +5.62341325190348830074e+006
  +5.75439937337156571448e+006
  +5.88843655355588532984e+006
  +6.02559586074357293546e+006
  +6.16595001861481554806e+006
  +6.30957344480193220079e+006
  +6.45654229034655354917e+006
  +6.60693448007595818490e+006
  +6.76082975391981564462e+006
  +6.91830970918936189264e+006
  +7.07945784384137485176e+006
  +7.24435960074989590794e+006
  +7.41310241300916951150e+006
  +7.58577575029183086008e+006
  +7.76247116628690902144e+006
  +7.94328234724281355739e+006
  +8.12830516164098959416e+006
  +8.31763771102670673281e+006
  +8.51138038202376104891e+006
  +8.70963589956080168486e+006
  +8.91250938133744895458e+006
  +9.12010839355909079313e+006
  +9.33254300796990282834e+006
  +9.54992586021435074508e+006
  +9.77237220955810509622e+006
  +9.99999999999999813735e+006
</indep>
<dep S[3,3] frequency>
  +9.99999703911933490730e-001-j6.28318391437794609988e-004
  +9.99999689957736026535e-001-j6.42953800162443826413e-004
  +9.99999675345897842682e-001-j6.57930110869149186066e-004
  +9.99999660045425287080e-001-j6.73255264150790099127e-004
  +9.99999644023863987208e-001-j6.88937385557957123437e-004
  +9.99999627247230238325e-001-j7.04984789906995036081e-004
  +9.99999609679938616935e-001-j7.21405985688380576096e-004
  +9.99999591284726374596e-001-j7.38209679577769796108e-004
  +9.99999572022575167196e-001-j7.55404781052109483390e-004
  +9.99999551852627344140e-001-j7.73000407113252105233e-004
  +9.99999530732099684016e-001-j7.91005887121585724540e-004
  +9.99999508616193133470e-001-j8.09430767742231748081e-004
  +9.99999485457996661886e-001-j8.28284818006439480832e-004
  +9.99999461208388784605e-001-j8.47578034490851562645e-004
  +9.99999435815933312988e-001-j8.67320646617390582887e-004
  +9.99999409226769109260e-001-j8.87523122076571270404e-004
  +9.99999381384497287861e-001-j9.08196172377114538735e-004
  +9.99999352230061089308e-001-j9.29350758524798538709e-004
  +9.99999321701619758862e-001-j9.50998096833561234152e-004
  +9.99999289734418983500e-001-j9.73149664871930490662e-004
  +9.99999256260652003014e-001-j9.95817207547926731143e-004
  +9.99999221209316724313e-001-j1.01901274333567287526e-003
  +9.99999184506065064149e-001-j1.04274857064699582807e-003
  +9.99999146073044409277e-001-j1.06703727435140407163e-003
  +9.99999105828733858559e-001-j1.09189173244789378484e-003
  +9.99999063687769806918e-001-j1.11732512289210899128e-003
  +9.99999019560766200243e-001-j1.14335093058248195817e-003
  +9.99998973354124132129e-001-j1.16998295450904512063e-003
  +9.99998924969833558052e-001-j1.19723531506870381827e-003
  +9.99998874305265239570e-001-j1.22512246155084131294e-003
  +9.99998821252953584704e-001-j1.25365917979722079831e-003
  +9.99998765700368053011e-001-j1.28286060004023888363e-003
  +9.99998707529674679684e-001-j1.31274220492367849240e-003
  +9.99998646617486497412e-001-j1.34331983771021059790e-003
  +9.99998582834601190683e-001-j1.37460971067998052007e-003
  +9.99998516045727647850e-001-j1.40662841372473810739e-003
  +9.99998446109198635412e-001-j1.43939292314204290123e-003
  +9.99998372876670371667e-001-j1.47292061063421047228e-003
  +9.99998296192808000526e-001-j1.50722925251675285430e-003
  +9.99998215894955966299e-001-j1.54233703914119328615e-003
  +9.99998131812793067397e-001-j1.57826258453723109951e-003
  +9.99998043767971189766e-001-j1.61502493627935965817e-003
  +9.99997951573737164921e-001-j1.65264358558316016776e-003
  +9.99997855034536420327e-001-j1.69113847763660411251e-003
  +9.99997753945598200076e-001-j1.73053002217182761401e-003
  +9.99997648092501467687e-001-j1.77083910428297176126e-003
  +9.99997537250719936708e-001-j1.81208709549580005566e-003
  +9.99997421185145785039e-001-j1.85429586509495156546e-003
  +9.99997299649591275816e-001-j1.89748779171480287664e-003
  +9.99997172386266175437e-001-j1.94168577520008257993e-003
  +9.99997039125231412804e-001-j1.98691324874247917873e-003
  +9.99996899583825871183e-001-j2.03319419129967780824e-003
  +9.99996753466067755944e-001-j2.08055314030336285444e-003
  +9.99996600462026097311e-001-j2.12901520466290917685e-003
  +9.99996440247163498327e-001-j2.17860607807162254962e-003
  +9.99996272481648351693e-001-j2.22935205262254909631e-003
  +9.99996096809632972757e-001-j2.28128003274103959355e-003
  +9.99995912858500091147e-001-j2.33441754944142473849e-003
  +9.99995720238071594821e-001-j2.38879277491530796207e-003
  +9.99995518539781413914e-001-j2.44443453745917752690e-003
  +9.99995307335808880644e-001-j2.50137233674920227838e-003
  +9.99995086178171233016e-001-j2.55963635947126406933e-003
  +9.99994854597773596971e-001-j2.61925749531445551874e-003
  +9.99994612103413893500e-001-j2.68026735333647299353e-003
  +9.99994358180741449438e-001-j2.74269827870951424589e-003
  +9.99994092291165204145e-001-j2.80658336985550220868e-003
  +9.99993813870712733305e-001-j2.87195649597964597008e-003
  +9.99993522328832762369e-001-j2.93885231501155117645e-003
  +9.99993217047143390097e-001-j3.00730629196334364739e-003
  +9.99992897378120582097e-001-j3.07735471771440746366e-003
  +9.99992562643724602900e-001-j3.14903472823265320746e-003
  +9.99992212133962055098e-001-j3.22238432424236864379e-003
  +9.99991845105380083858e-001-j3.29744239134900727489e-003
  +9.99991460779489860222e-001-j3.37424872063144844214e-003
  +9.99991058341114902319e-001-j3.45284402971253456816e-003
  +9.99990636936663235268e-001-j3.53326998431893486013e-003
  +9.99990195672316062314e-001-j3.61556922034161377921e-003
  +9.99989733612132836171e-001-j3.69978536640846230460e-003
  +9.99989249776066069231e-001-j3.78596306698089591844e-003
  +9.99988743137883107082e-001-j3.87414800598649255309e-003
  +9.99988212622989314227e-001-j3.96438693100002650244e-003
  +9.99987657106149674391e-001-j4.05672767798551277274e-003
  +9.99987075409102366130e-001-j4.15121919661216517983e-003
  +9.99986466298060094893e-001-j4.24791157615748895399e-003
  +9.99985828481092964282e-001-j4.34685607201097667929e-003
  +9.99985160605389999944e-001-j4.44810513279220338945e-003
  +9.99984461254389445095e-001-j4.55171242809743453045e-003
  +9.99983728944775274172e-001-j4.65773287688915800520e-003
  +9.99982962123331264870e-001-j4.76622267654325595942e-003
  +9.99982159163648076650e-001-j4.87723933256889452537e-003
  +9.99981318362673676781e-001-j4.99084168901652719397e-003
  +9.99980437937102784041e-001-j5.10708995958972320622e-003
  +9.99979516019594782961e-001-j5.22604575947691139121e-003
  +9.99978550654814890564e-001-j5.34777213791945513904e-003
  +9.99977539795287473368e-001-j5.47233361153285757100e-003
  +9.99976481297055186381e-001-j5.59979619839824811767e-003
  +9.99975372915133164931e-001-j5.73022745294164866092e-003
  +9.99974212298748499350e-001-j5.86369650161894066798e-003
  +9.99972996986356776894e-001-j6.00027407942482597647e-003
  +9.99971724400422812273e-001-j6.14003256724442083442e-003
  +9.99970391841955796863e-001-j6.28304603006660418452e-003
  +9.99968996484787875367e-001-j6.42939025607855603461e-003
  +9.99967535369581717042e-001-j6.57914279666141962183e-003
  +9.99966005397557422540e-001-j6.73238300730732899119e-003
  +9.99964403323923223255e-001-j6.88919208947863515036e-003
  +9.99962725750996428431e-001-j7.04965313343038687405e-003
  +9.99960969121002074544e-001-j7.21385116201773458899e-003
  +9.99959129708529959046e-001-j7.38187317551028659296e-003
  +9.99957203612639178303e-001-j7.55380819743588574622e-003
  +9.99955186748588964463e-001-j7.72974732147680559935e-003
  +9.99953074839181055289e-001-j7.90978375944170752909e-003
  +9.99950863405694612140e-001-j8.09401289033729459677e-003
  +9.99948547758393480045e-001-j8.28253231056397774823e-003
  +9.99946122986587693227e-001-j8.47544188526036697262e-003
  +9.99943583948226799585e-001-j8.67284380082193780137e-003
  +9.99940925259002355574e-001-j8.87484261861961991336e-003
  +9.99938141280939274402e-001-j9.08154532994457849848e-003
  +9.99935226110449160153e-001-j9.29306141220604016440e-003
  +9.99932173565821202921e-001-j9.50950288640928405315e-003
  +9.99928977174125099836e-001-j9.73098437594175844079e-003
  +9.99925630157497469241e-001-j9.95762316669539064573e-003
  +9.99922125418783225292e-001-j1.01895392685540115557e-002
  +9.99918455526500493669e-001-j1.04268554782750520055e-002
  +9.99914612699100091575e-001-j1.06696974437953846782e-002
  +9.99910588788482268541e-001-j1.09181937299914662287e-002
  +9.99906375262740176879e-001-j1.11724758859246663806e-002
  +9.99901963188091102985e-001-j1.14326785136029292211e-002
  +9.99897343209956823706e-001-j1.16989393382906058105e-002
  +9.99892505533156672470e-001-j1.19713992803986857966e-002
  +9.99887439901167240919e-001-j1.22502025289880911441e-002
  +9.99882135574408303924e-001-j1.25354966169192571374e-002
  +9.99876581307507783514e-001-j1.28274324976816612304e-002
  +9.99870765325498123133e-001-j1.31261646239373228756e-002
  +9.99864675298893890165e-001-j1.34318510278129306379e-002
  +9.99858298317598870320e-001-j1.37446534029753830025e-002
  +9.99851620863587253751e-001-j1.40647371885262283814e-002
  +9.99844628782300515191e-001-j1.43922716547506459456e-002
  +9.99837307252703033633e-001-j1.47274299907571050439e-002
  +9.99829640755929838214e-001-j1.50703893940441428084e-002
  +9.99821613042463308574e-001-j1.54213311620308990424e-002
  +9.99813207097768219533e-001-j1.57804407855885453493e-002
  +9.99804405106315297047e-001-j1.61479080446096934232e-002
  +9.99795188413915902892e-001-j1.65239271056534138549e-002
  +9.99785537488289688390e-001-j1.69086966217032869109e-002
  +9.99775431877782838619e-001-j1.73024198340762901116e-002
  +9.99764850168151086862e-001-j1.77053046765203205004e-002
  +9.99753769937316016936e-001-j1.81175638815379916324e-002
  +9.99742167708000950554e-001-j1.85394150889745985833e-002
  +9.99730018898148387052e-001-j1.89710809569077210046e-002
  +9.99717297769013413244e-001-j1.94127892748758128227e-002
  +9.99703977370827723270e-001-j1.98647730794829953382e-002
  +9.99690029485918896235e-001-j2.03272707724166494525e-002
  +9.99675424569168136202e-001-j2.08005262409142292757e-002
  +9.99660131685681574432e-001-j2.12847889807147860886e-002
  +9.99644118445548013341e-001-j2.17803142215303030538e-002
  +9.99627350935544667365e-001-j2.22873630550711292198e-002
  +9.99609793647652566939e-001-j2.28062025656584309308e-002
  +9.99591409404231523439e-001-j2.33371059634563011997e-002
  +9.99572159279702110446e-001-j2.38803527203539610324e-002
  +9.99552002518570903433e-001-j2.44362287085278413745e-002
  +9.99530896449632000333e-001-j2.50050263417113081965e-002
  +9.99508796396168075482e-001-j2.55870447191982562651e-002
  +9.99485655581964338445e-001-j2.61825897726045177250e-002
  +9.99461425032946770841e-001-j2.67919744154089672916e-002
  +9.99436053474238028649e-001-j2.74155186952938015321e-002
  +9.99409487222426173858e-001-j2.80535499493003680216e-002
  +9.99381670072821304274e-001-j2.87064029618143354283e-002
  +9.99352543181473929046e-001-j2.93744201253901826565e-002
  +9.99322044941713949484e-001-j3.00579516044215851178e-002
  +9.99290110854959667819e-001-j3.07573555016601545009e-002
  +9.99256673395536254567e-001-j3.14729980275804191447e-002
  +9.99221661869229005326e-001-j3.22052536725842275533e-002
  +9.99185002265288502166e-001-j3.29545053820324423954e-002
  +9.99146617101588696563e-001-j3.37211447340856618204e-002
  +9.99106425262628050632e-001-j3.45055721203300566624e-002
  +9.99064341830050661741e-001-j3.53081969291566266644e-002
  +9.99020277905347864333e-001-j3.61294377318558609935e-002
  +9.98974140424390144588e-001-j3.69697224713802299889e-002
  +9.98925831963420440829e-001-j3.78294886537198851717e-002
  +9.98875250536126579881e-001-j3.87091835418254745504e-002
  +9.98822289381393946250e-001-j3.96092643520033899085e-002
  +9.98766836741321939463e-001-j4.05301984526965086708e-002
  +9.98708775629070899527e-001-j4.14724635655517384625e-002
  +9.98647983586089860175e-001-j4.24365479686627383726e-002
  +9.98584332428252507974e-001-j4.34229507018618898773e-002
  +9.98517687980414403448e-001-j4.44321817739205676689e-002
  +9.98447909798882982102e-001-j4.54647623715000587241e-002
  +9.98374850881268649516e-001-j4.65212250696786094872e-002
  +9.98298357363168964440e-001-j4.76021140438597015199e-002
  +9.98218268201112035598e-001-j4.87079852828475254323e-002
  +9.98134414841166162091e-001-j4.98394068028530159986e-002
  +9.98046620872595990903e-001-j5.09969588621697611508e-002
  +9.97954701665927146337e-001-j5.21812341762346379448e-002
  +9.97858463994750422010e-001-j5.33928381327594889227e-002
  +9.97757705640578529405e-001-j5.46323890065919873238e-002
  +9.97652214980039531156e-001-j5.59005181739313170008e-002
  +9.97541770553662998644e-001-j5.71978703254911943765e-002
  +9.97426140615496503727e-001-j5.85251036781666914011e-002
  +9.97305082662752528933e-001-j5.98828901847215516741e-002
  +9.97178342944670004222e-001-j6.12719157409722242624e-002
  +9.97045655949737708035e-001-j6.26928803898999242872e-002
  +9.96906743870405676056e-001-j6.41464985220744215999e-002
  +9.96761316044378342660e-001-j6.56334990717224453505e-002
  +9.96609068371560491428e-001-j6.71546257077190872353e-002
  +9.96449682705693340345e-001-j6.87106370187228615576e-002
  +9.96282826219694217507e-001-j7.03023066916122069125e-002
  +9.96108150743686415751e-001-j7.19304236823164327985e-002
  +9.95925292074676504761e-001-j7.35957923780614781117e-002
  +9.95733869256810066872e-001-j7.52992327499773378419e-002
  +9.95533483831116949858e-001-j7.70415804949324822815e-002
  +9.95323719053624156317e-001-j7.88236871653761606016e-002
  +9.95104139080699390263e-001-j8.06464202858771100901e-002
  +9.94874288120463745599e-001-j8.25106634549519629696e-002
  +9.94633689549091148940e-001-j8.44173164306720041905e-002
  +9.94381844990800067841e-001-j8.63672951984293668648e-002
  +9.94118233360322012260e-001-j8.83615320191257491711e-002
  +9.93842309866628914605e-001-j9.04009754559256112350e-002
  +9.93553504976682710925e-001-j9.24865903775829306666e-002
  +9.93251223337978550454e-001-j9.46193579362140657629e-002
  +9.92934842658645955282e-001-j9.68002755172418793972e-002
  +9.92603712543881244734e-001-j9.90303566590814976500e-002
  +9.92257153287498194771e-001-j1.01310630939974499753e-001
  +9.91894454617402776542e-001-j1.03642143829204988470e-001
  +9.91514874393820355714e-001-j1.06025956499749995920e-001
  +9.91117637259146366802e-001-j1.08463145599222057780e-001
  +9.90701933238328780185e-001-j1.10954802975763544559e-001
  +9.90266916288749410313e-001-j1.13502035355335734179e-001
  +9.89811702798638060052e-001-j1.16105963966625536088e-001
  +9.89335370033129324341e-001-j1.18767724109557895606e-001
  +9.88836954527170242102e-001-j1.21488464663157408330e-001
  +9.88315450424592789602e-001-j1.24269347528246892898e-001
  +9.87769807762791995920e-001-j1.27111547000203800595e-001
  +9.87198930702598231868e-001-j1.30016249066717937133e-001
  +9.86601675703095315484e-001-j1.32984650625205064189e-001
  +9.85976849641326591467e-001-j1.36017958614230688452e-001
  +9.85323207877043638625e-001-j1.39117389052991174969e-001
  +9.84639452262894065981e-001-j1.42284165982576371601e-001
  +9.83924229100712199880e-001-j1.45519520302411942136e-001
  +9.83176127044880221462e-001-j1.48824688494941348438e-001
  +9.82393674954062379179e-001-j1.52200911231263391610e-001
  +9.81575339692986492679e-001-j1.55649431850090308460e-001
  +9.80719523886363186982e-001-j1.59171494702037147340e-001
  +9.79824563627488043238e-001-j1.62768343350894489907e-001
  +9.78888726144574561339e-001-j1.66441218623178094349e-001
  +9.77910207428418498665e-001-j1.70191356496894680150e-001
  +9.76887129825603550692e-001-j1.74019985820106526386e-001
  +9.75817539602113814823e-001-j1.77928325849538437886e-001
  +9.74699404482950448880e-001-j1.81917583599136123418e-001
  +9.73530611174129201224e-001-j1.85988950988168172396e-001
  +9.72308962874295024115e-001-j1.90143601778172161021e-001
  +9.71032176784113909562e-001-j1.94382688287772192881e-001
  +9.69697881622603508056e-001-j1.98707337874164835512e-001
  +9.68303615160642228155e-001-j2.03118649169869242010e-001
  +9.66846821783058363309e-001-j2.07617688063191030423e-001
  +9.65324850091945019237e-001-j2.12205483410758982687e-001
  +9.63734950565176107240e-001-j2.16883022470459152498e-001
  +9.62074273285524528276e-001-j2.21651246043146510356e-001
  +9.60339865757290023218e-001-j2.26511043311645704490e-001
  +9.58528670828948103910e-001-j2.31463246365786579073e-001
  +9.56637524742029343727e-001-j2.36508624402570283296e-001
  +9.54663155328216550544e-001-j2.41647877591033871658e-001
  +9.52602180378523621940e-001-j2.46881630592000828051e-001
  +9.50451106210378204864e-001-j2.52210425723681130883e-001
  +9.48206326460459214545e-001-j2.57634715765041710789e-001
  +9.45864121133257129692e-001-j2.63154856390014402212e-001
  +9.43420655937489027743e-001-j2.68771098226980531543e-001
  +9.40871981944724988800e-001-j2.74483578539570227672e-001
  +9.38214035606841356696e-001-j2.80292312526676745676e-001
  +9.35442639171194967318e-001-j2.86197184241726465537e-001
  +9.32553501534692075303e-001-j2.92197937133683027788e-001
  +9.29542219580175799187e-001-j2.98294164215031354370e-001
  +9.26404280040765470972e-001-j3.04485297865093484937e-001
  +9.23135061939889700611e-001-j3.10770599280502157757e-001
  +9.19729839656759251554e-001-j3.17149147588520030627e-001
  +9.16183786668855248969e-001-j3.23619828643148810254e-001
  +9.12491980024642712621e-001-j3.30181323528656811561e-001
  +9.08649405601076765038e-001-j3.36832096800261993064e-001
  +9.04650964201533458464e-001-j3.43570384497254799339e-001
  +9.00491478550462076669e-001-j3.50394181969836349122e-001
  +8.96165701241294021528e-001-j3.57301231567374366627e-001
  +8.91668323693854847356e-001-j3.64289010242637878445e-001
  +8.86993986176652371434e-001-j3.71354717133839828946e-001
  +8.82137288947858699828e-001-j3.78495261193974030789e-001
  +8.77092804566508288389e-001-j3.85707248944925085166e-001
  +8.71855091422276240465e-001-j3.92986972442138926542e-001
  +8.66418708528128078683e-001-j4.00330397544165106360e-001
  +8.60778231615037858759e-001-j4.07733152590081582289e-001
  +8.54928270561774783509e-001-j4.15190517596563946068e-001
  +8.48863488185377157436e-001-j4.22697414095085433061e-001
  +8.42578620409301315419e-001-j4.30248395738275224431e-001
  +8.36068497816268574319e-001-j4.37837639812705625708e-001
  +8.29328068581508093260e-001-j4.45458939803140052671e-001
  +8.22352422769331736774e-001-j4.53105699160396169223e-001
  +8.15136817961816917411e-001-j4.60770926431231075959e-001
  +8.07676706172747005397e-001-j4.68447231913876660503e-001
  +7.99967761982964042922e-001-j4.76126826006765924149e-001
  +7.92005911814939400628e-001-j4.83801519420391401560e-001
  +7.83787364244784678924e-001-j4.91462725422864288305e-001
  +7.75308641229219164259e-001-j4.99101464288356166943e-001
  +7.66566610103383561103e-001-j5.06708370113943873392e-001
  +7.57558516183021946055e-001-j5.14273700164214697672e-001
</dep>
<dep S[3,4] frequency>
  +1.48044033257670293845e-007+j3.14159195718897250784e-004
  +1.55021131976074970065e-007+j3.21476900081221913207e-004
  +1.62327051070716393202e-007+j3.28965055434574593033e-004
  +1.69977287353448607383e-007+j3.36627632075395049564e-004
  +1.77988067976915996921e-007+j3.44468692778978561719e-004
  +1.86376384854313927422e-007+j3.52492394953497463830e-004
  +1.95160030701290272794e-007+j3.60702992844190233838e-004
  +2.04357636776433133953e-007+j3.69104839788884898054e-004
  +2.13988712400398097793e-007+j3.77702390526054687485e-004
  +2.24073686337495431631e-007+j3.86500203556626052617e-004
  +2.34633950127513358100e-007+j3.95502943560792916480e-004
  +2.45691903459684138109e-007+j4.04715383871115819830e-004
  +2.57271001685037636340e-007+j4.14142409003219740416e-004
  +2.69395805567915731937e-007+j4.23789017245425781322e-004
  +2.82092033382176100526e-007+j4.33660323308695291444e-004
  +2.95386615462583065503e-007+j4.43761561038285635202e-004
  +3.09307751327093104355e-007+j4.54098086188557323577e-004
  +3.23884969491191955841e-007+j4.64675379262399215145e-004
  +3.39149190101155469810e-007+j4.75499048416780671286e-004
  +3.55132790519079776600e-007+j4.86574832435965299541e-004
  +3.71869673998788255818e-007+j4.97908603773963257151e-004
  +3.89395341598283424997e-007+j5.09506371667836437632e-004
  +4.07746967481266429870e-007+j5.21374285323497805612e-004
  +4.26963477767444639240e-007+j5.33518637175702035817e-004
  +4.47085633098868441245e-007+j5.45945866223946892418e-004
  +4.68156115097421938131e-007+j5.58662561446054387222e-004
  +4.90219616896844402197e-007+j5.71675465291240979086e-004
  +5.13322937941300838654e-007+j5.84991477254522560317e-004
  +5.37515083251569012928e-007+j5.98617657534351800715e-004
  +5.62847367369385581059e-007+j6.12561230775420548049e-004
  +5.89373523200414782308e-007+j6.26829589898610290734e-004
  +6.17149815986693706250e-007+j6.41430300020119333396e-004
  +6.46235162650283626140e-007+j6.56371102461839137782e-004
  +6.76691256761255253930e-007+j6.71659918855105190529e-004
  +7.08582699395050031817e-007+j6.87304855339990043196e-004
  +7.41977136156770675400e-007+j7.03314206862369053694e-004
  +7.76945400663006749464e-007+j7.19696461571021450614e-004
  +8.13561664785519073607e-007+j7.36460305317105127718e-004
  +8.51903595975433893745e-007+j7.53614626258376427148e-004
  +8.92052522001611626269e-007+j7.71168519570596534655e-004
  +9.34093603452592536128e-007+j7.89131292268615658174e-004
  +9.78116014367962407892e-007+j8.07512468139679720665e-004
  +1.02421313138224454145e-006+j8.26321792791580083878e-004
  +1.07248273178245900601e-006+j8.45569238818302056256e-004
  +1.12302720089940041419e-006+j8.65265011085913807003e-004
  +1.17595374927247449712e-006+j8.85419552141485880631e-004
  +1.23137464004865790465e-006+j9.06043547747900136248e-004
  +1.28940742709785754458e-006+j9.27147932547475674310e-004
  +1.35017520434964318720e-006+j9.48743895857401329900e-004
  +1.41380686688016447452e-006+j9.70842887600041181545e-004
  +1.48043738430292156105e-006+j9.93456624371239806204e-004
  +1.55020808704320164978e-006+j1.01659709564983890412e-003
  +1.62326696610328381803e-006+j1.04027657015168164406e-003
  +1.69976898695410654833e-006+j1.06450760233145458843e-003
  +1.77987641821907776956e-006+j1.08930303903581127481e-003
  +1.86375917584703769148e-006+j1.11467602631127454815e-003
  +1.95159518350425065328e-006+j1.14064001637051957994e-003
  +2.04357074994965468638e-006+j1.16720877472071236924e-003
  +2.13988096419365335518e-006+j1.19439638745765419788e-003
  +2.24073010927835858405e-006+j1.22221726872958876345e-003
  +2.34633209555676571130e-006+j1.25068616837460135603e-003
  +2.45691091438960183244e-006+j1.27981817973563203467e-003
  +2.57270111322188543151e-006+j1.30962874765722775937e-003
  +2.69394829304659645452e-006+j1.34013367666823649677e-003
  +2.82090962931025551917e-006+j1.37134913935475690611e-003
  +2.95385441736492882468e-006+j1.40329168492775110434e-003
  +3.09306464362321702948e-006+j1.43597824798982298504e-003
  +3.23883558362718917349e-006+j1.46942615750577558822e-003
  +3.39147642829941438602e-006+j1.50365314598167160685e-003
  +3.55131093970375580837e-006+j1.53867735885720351499e-003
  +3.71867813770637620671e-006+j1.57451736411632617005e-003
  +3.89393301899263984052e-006+j1.61119216212118410506e-003
  +4.07744730996439582615e-006+j1.64872119567450363745e-003
  +4.26961025511370760176e-006+j1.68712436031572422107e-003
  +4.47082944254441635139e-006+j1.72642201485626706724e-003
  +4.68153166839156478492e-006+j1.76663499215946721323e-003
  +4.90216384197112651751e-006+j1.80778461017080710645e-003
  +5.13319393357876337406e-006+j1.84989268320423136914e-003
  +5.37511196694675752293e-006+j1.89298153349044774238e-003
  +5.62843105846268834105e-006+j1.93707400299324584286e-003
  +5.89368850535272920826e-006+j1.98219346550001325122e-003
  +6.17144692513587231580e-006+j2.02836383899275595269e-003
  +6.46229544876420366171e-006+j2.07560959830608215623e-003
  +6.76685096997787653749e-006+j2.12395578807874491067e-003
  +7.08575945352256106536e-006+j2.17342803600548790596e-003
  +7.41969730500177553810e-006+j2.22405256639610212840e-003
  +7.76937280526692382332e-006+j2.27585621404871726522e-003
  +8.13552761238460639891e-006+j2.32886643844457856892e-003
  +8.51893833436370431441e-006+j2.38311133827162797971e-003
  +8.92041817597455517200e-006+j2.43861966628444769636e-003
  +9.34081866314944968678e-006+j2.49542084450826316330e-003
  +9.78103144861760536604e-006+j2.55354497979486116943e-003
  +1.02419902025999426111e-005+j2.61302287973845569560e-003
  +1.07246725925686857379e-005+j2.67388606895972756952e-003
  +1.12301023562654930847e-005+j2.73616680576642921918e-003
  +1.17593514723688792004e-005+j2.79989809919912449251e-003
  +1.23135424334081885767e-005+j2.86511372647082433046e-003
  +1.28938506257377651185e-005+j2.93184825080946946663e-003
  +1.35015068216112260672e-005+j3.00013703971241342192e-003
  +1.41377997886325862842e-005+j3.07001628362220954985e-003
  +1.48040790221094305013e-005+j3.14152301503330209226e-003
  +1.55017576060925249245e-005+j3.21469512803927845099e-003
  +1.62323152091587619335e-005+j3.28957139833070937723e-003
  +1.69973012212783858115e-005+j3.36619150365366492927e-003
  +1.77983380384060214734e-005+j3.44459604473931757518e-003
  +1.86371245017463669775e-005+j3.52482656671519343702e-003
  +1.95154394989724889900e-005+j3.60692558100886729450e-003
  +2.04351457350161840574e-005+j3.69093658775514373016e-003
  +2.13981936804077789243e-005+j3.77690409871794243943e-003
  +2.24066257055174501808e-005+j3.86487366073840193231e-003
  +2.34625804094421300456e-005+j3.95489187972085376455e-003
  +2.45682971526923339645e-005+j4.04700644516864729838e-003
  +2.57261208032634740728e-005+j4.14126615528198800675e-003
  +2.69385067061250145005e-005+j4.23772094263018261895e-003
  +2.82080258866324490611e-005+j4.33642190041096890069e-003
  +2.95373704988591537950e-005+j4.43742130930980995668e-003
  +3.09293595303607591804e-005+j4.54077266497228924924e-003
  +3.23869447754251751632e-005+j4.64653070610301921484e-003
  +3.39132170894249738318e-005+j4.75475144320464289394e-003
  +3.55114129374816932532e-005+j4.86549218797087922039e-003
  +3.71849212512684624827e-005+j4.97881158334769445550e-003
  +3.89372906084264663786e-005+j5.09476963427700491049e-003
  +4.07722367497472771235e-005+j5.21342773913752600273e-003
  +4.26936504499832758281e-005+j5.33484872189769060435e-003
  +4.47056057588887689226e-005+j5.45909686499573224699e-003
  +4.68123686298731661376e-005+j5.58623794296233405765e-003
  +4.90184059544577433918e-005+j5.71633925680146461057e-003
  +5.13283950215795206347e-005+j5.84946966914530203790e-003
  +5.37472334216745458650e-005+j5.98569964019934289828e-003
  +5.62800494164033049730e-005+j6.12510126449404557203e-003
  +5.89322127958553224395e-005+j6.26774830845962856868e-003
  +6.17093462460884971182e-005+j6.41371624884082888046e-003
  +6.46173372509239459611e-005+j6.56308231196866057044e-003
  +6.76623505530332875792e-005+j6.71592551390646531895e-003
  +7.08508412005193037586e-005+j6.87232670148769150126e-003
  +7.41895682064132262539e-005+j7.03236859426311245597e-003
  +7.76856088497856101145e-005+j7.19613582737532123806e-003
  +8.13463736485030785260e-005+j7.36371499537855165457e-003
  +8.51796220350593580621e-005+j7.53519469702207140421e-003
  +8.91934787683667195095e-005+j7.71066558101545125592e-003
  +9.33964511159214854242e-005+j7.89022039279427093994e-003
  +9.77974468423522218371e-005+j8.07395402230484497685e-003
  +1.02405793042028184594e-004+j8.26196355282670519271e-003
  +1.07231255855148445801e-004+j8.45434831085164345543e-003
  +1.12284061108557312448e-004+j8.65120991703814505580e-003
  +1.17574915924436578939e-004+j8.85265233826016025021e-003
  +1.23115031342017200574e-004+j9.05878194076899581622e-003
  +1.28916145999536242402e-004+j9.26970754448729755692e-003
  +1.34990550925838972930e-004+j9.48554047845386050231e-003
  +1.41351115493301834544e-004+j9.70639463743790641137e-003
  +1.48011314586125381680e-004+j9.93238653974149766912e-003
  +1.54985257040528897482e-004+j1.01636353862083247263e-002
  +1.62287715415972963245e-004+j1.04002631204571129031e-002
  +1.69934157159238262945e-004+j1.06423944903573930443e-002
  +1.77940777226022928299e-004+j1.08901571107651532616e-002
  +1.86324532227670843941e-004+j1.11436815275355628752e-002
  +1.95103176173721517758e-004+j1.14031012828292137307e-002
  +2.04295297884201742904e-004+j1.16685529817281505999e-002
  +2.13920360148923147190e-004+j1.19401763601769822509e-002
  +2.23998740714567582191e-004+j1.22181143542639189525e-002
  +2.34551775183991620443e-004+j1.25025131708556540983e-002
  +2.45601801916000802347e-004+j1.27935223595991246631e-002
  +2.57172209017822212158e-004+j1.30912948863022571278e-002
  +2.69287483526649382322e-004+j1.33959872077044819111e-002
  +2.81973262880971038864e-004+j1.37077593476469025008e-002
  +2.95256388786888188547e-004+j1.40267749746501822761e-002
  +3.09164963589340327944e-004+j1.43532014809071659794e-002
  +3.23728409263043825396e-004+j1.46872100626950895935e-002
  +3.38977529143052146166e-004+j1.50289758022107908242e-002
  +3.54944572520156495423e-004+j1.53786777508300807199e-002
  +3.71663302231869084342e-004+j1.57364990137902095724e-002
  +3.89169065385492024371e-004+j1.61026268362921137767e-002
  +4.07498867355746152447e-004+j1.64772526910162177283e-002
  +4.26691449205670529209e-004+j1.68605723670428309102e-002
  +4.46787368685963028839e-004+j1.72527860601650283312e-002
  +4.67829084974661810973e-004+j1.76540984645783133322e-002
  +4.89861047326049727120e-004+j1.80647188659279304968e-002
  +5.12929787804904829297e-004+j1.84848612356901149945e-002
  +5.37084018289773730895e-004+j1.89147443268599391164e-002
  +5.62374731936705939475e-004+j1.93545917709127372752e-002
  +5.88855309303024164296e-004+j1.98046321760016984237e-002
  +6.16581629339068540592e-004+j2.02650992263482543354e-002
  +6.45612185464536684175e-004+j2.07362317827758692312e-002
  +6.76008206955036085317e-004+j2.12182739843313691863e-002
  +7.07833785873759565622e-004+j2.17114753509309449386e-002
  +7.41156009792797517040e-004+j2.22160908869602838345e-002
  +7.76045100558514261598e-004+j2.27323811857500293621e-002
  +8.12574559365677735571e-004+j2.32606125348393047436e-002
  +8.50821318415539680838e-004+j2.38010570219298507599e-002
  +8.90865899443972226318e-004+j2.43539926414237627161e-002
  +9.32792579416924809085e-004+j2.49197034014265114688e-002
  +9.76689563701954675118e-004+j2.54984794310848840448e-002
  +1.02264916703639950971e-003+j2.60906170881173189724e-002
  +1.07076800262481349781e-003+j2.66964190663797479308e-002
  +1.12114717971070732526e-003+j2.73161945032959901924e-002
  +1.17389250998024136097e-003+j2.79502590869656585004e-002
  +1.22911472316845362361e-003+j2.85989351627455937188e-002
  +1.28692969225175897832e-003+j2.92625518390833457005e-002
  +1.34745866862375656726e-003+j2.99414450923607723676e-002
  +1.41082852766500959837e-003+j3.06359578704861086618e-002
  +1.47717202513110651765e-003+j3.13464401949499621436e-002
  +1.54662806479716327321e-003+j3.20732492610372108000e-002
  +1.61934197781082194791e-003+j3.28167495358612157363e-002
  +1.69546581421972371133e-003+j3.35773128538595505566e-002
  +1.77515864715335302919e-003+j3.43553185093614238399e-002
  +1.85858689015293504845e-003+j3.51511533458061034563e-002
  +1.94592462815678149922e-003+j3.59652118411582094604e-002
  +2.03735396266178534971e-003+j3.67978961890307390559e-002
  +2.13306537159496873227e-003+j3.76496163749886689209e-002
  +2.23325808444152073412e-003+j3.85207902474662411407e-002
  +2.33814047318794656152e-003+j3.94118435826880733619e-002
  +2.44793045965030009806e-003+j4.03232101429385481062e-002
  +2.56285593976813674127e-003+j4.12553317274759814848e-002
  +2.68315522545440254473e-003+j4.22086582153360020953e-002
  +2.80907750460001508566e-003+j4.31836475992146834324e-002
  +2.94088331983897999233e-003+j4.41807660095628676467e-002
  +3.07884506668555484044e-003+j4.52004877279628056175e-002
  +3.22324751165867619609e-003+j4.62432951887914583944e-002
  +3.37438833101071566575e-003+j4.73096789681070398204e-002
  +3.53257867067700978211e-003+j4.84001377586209327597e-002
  +3.69814372805940972527e-003+j4.95151783295407418861e-002
  +3.87142335625088136394e-003+j5.06553154699872498767e-002
  +4.05277269129860912705e-003+j5.18210719146024803572e-002
  +4.24256280308982127586e-003+j5.30129782498750048991e-002
  +4.44118137042680532350e-003+j5.42315727996110358289e-002
  +4.64903338083562465283e-003+j5.54774014878817722796e-002
  +4.86654185562528530246e-003+j5.67510176776678670896e-002
  +5.09414860068098385160e-003+j5.80529819833127611051e-002
  +5.33231498343537599349e-003+j5.93838620547789478032e-002
  +5.58152273641489109213e-003+j6.07442323315787041649e-002
  +5.84227478770363208710e-003+j6.21346737641234533878e-002
  +6.11509611860403239775e-003+j6.35557735001018864196e-002
  +6.40053464870089187239e-003+j6.50081245333589685664e-002
  +6.69916214845233011499e-003+j6.64923253126025320947e-002
  +7.01157517933669819504e-003+j6.80089793071153442261e-002
  +7.33839606147816767706e-003+j6.95586945264955736068e-002
  +7.68027386855296787666e-003+j7.11420829912881858004e-002
  +8.03788544964392781544e-003+j7.27597601512059710682e-002
  +8.41193647755987712611e-003+j7.44123442474706742189e-002
  +8.80316252296879826755e-003+j7.61004556156317096827e-002
  +9.21233015350678141608e-003+j7.78247159250451681078e-002
  +9.64023805681843599935e-003+j7.95857473510185736698e-002
  +1.00877181862559835851e-002+j8.13841716754472449535e-002
  +1.05556369277127540252e-002+j8.32206093115890471745e-002
  +1.10448962857907211771e-002+j8.50956782484473400752e-002
  +1.15564350871982142455e-002+j8.70099929100532493154e-002
  +1.20912301989430752414e-002+j8.89641629247692189431e-002
  +1.26502977585247582126e-002+j9.09587917995680478311e-002
  +1.32346944129353855102e-002+j9.29944754940841000757e-002
  +1.38455185628524792690e-002+j9.50718008890860805105e-002
  +1.44839116079430122591e-002+j9.71913441438861103183e-002
  +1.51510591886982147469e-002+j9.93536689370824038781e-002
  +1.58481924196789102088e-002+j1.01559324584934607127e-001
  +1.65765891084707940595e-002+j1.03808844031595515212e-001
  +1.73375749540275007898e-002+j1.06102741705379491344e-001
  +1.81325247174119706661e-002+j1.08441511235229562371e-001
  +1.89628633572377081062e-002+j1.10825623021573255178e-001
  +1.98300671213549987992e-002+j1.13255521655822866123e-001
  +2.07356645855259653921e-002+j1.15731623182893289536e-001
  +2.16812376289853246669e-002+j1.18254312201285155526e-001
  +2.26684223358917698310e-002+j1.20823938795516921951e-001
  +2.36989098107381890301e-002+j1.23440815296000441781e-001
  +2.47744468948108871598e-002+j1.26105212861840565441e-001
  +2.58968367697703788499e-002+j1.28817357882520827639e-001
  +2.70679394333714178067e-002+j1.31577428195007173350e-001
  +2.82896720312554583732e-002+j1.34385549113490265771e-001
  +2.95640090276374986611e-002+j1.37241789269785113836e-001
  +3.08929821965793389993e-002+j1.40146156263338372838e-001
  +3.22786804144024677687e-002+j1.43098592120863205013e-001
  +3.37232492326539692873e-002+j1.46098968566841513894e-001
  +3.52288902099121073452e-002+j1.49147082107515677185e-001
  +3.67978599796172922698e-002+j1.52242648932546742468e-001
  +3.84324690300551288780e-002+j1.55385299640251078879e-001
  +4.01350801716204089176e-002+j1.58574573794260015314e-001
  +4.19081066655723616377e-002+j1.61809914321574377372e-001
  +4.37540099876786645061e-002+j1.65090661764328405781e-001
  +4.56752971994615966644e-002+j1.68416048400130996532e-001
  +4.76745178992332707679e-002+j1.71785192248627399669e-001
  +4.97542607247689824823e-002+j1.75197090984918202317e-001
  +5.19171493793529961747e-002+j1.78650615783687183313e-001
  +5.41658381530725624442e-002+j1.82144505121318966978e-001
  +5.65030069116738073443e-002+j1.85677358566919886718e-001
  +5.89313555260706778416e-002+j1.89247630596987015394e-001
  +6.14535977167458419279e-002+j1.92853624472462514827e-001
  +6.40724542888618520120e-002+j1.96493486221069435516e-001
  +6.67906457359359329029e-002+j2.00165198772082553180e-001
  +6.96108841924810428647e-002+j2.03866576295040735634e-001
  +7.25358647191126082454e-002+j2.07595258798282000789e-001
  +7.55682559073114212822e-002+j2.11348707047542688775e-001
  +7.87106897953494116793e-002+j2.15124197869137612216e-001
  +8.19657510918657405963e-002+j2.18918819906352840610e-001
  +8.53359657092460088812e-002+j2.22729469901569998580e-001
  +8.88237886153341177353e-002+j2.26552849580198056856e-001
  +9.24315910190915135392e-002+j2.30385463215615510224e-001
  +9.61616469136264556683e-002+j2.34223615956938330251e-001
  +1.00016119008517978539e-001+j2.38063413003382934319e-001
  +1.03997044092530341319e-001+j2.41900759710195673025e-001
  +1.08106317877607660538e-001+j2.45731362711432144152e-001
  +1.12345679385390362359e-001+j2.49550732144178111227e-001
  +1.16716694948308191693e-001+j2.53354185056971881185e-001
  +1.21220741908488971461e-001+j2.57136850082107348836e-001
</dep>
<dep S[4,3] frequency>
  +1.48044033257670293845e-007+j3.14159195718897250784e-004
  +1.55021131976074970065e-007+j3.21476900081221913207e-004
  +1.62327051070716393202e-007+j3.28965055434574593033e-004
  +1.69977287353448607383e-007+j3.36627632075395049564e-004
  +1.77988067976915996921e-007+j3.44468692778978561719e-004
  +1.86376384854313927422e-007+j3.52492394953497463830e-004
  +1.95160030701290272794e-007+j3.60702992844190233838e-004
  +2.04357636776433133953e-007+j3.69104839788884898054e-004
  +2.13988712400398097793e-007+j3.77702390526054687485e-004
  +2.24073686337495431631e-007+j3.86500203556626052617e-004
  +2.34633950127513358100e-007+j3.95502943560792916480e-004
  +2.45691903459684138109e-007+j4.04715383871115819830e-004
  +2.57271001685037636340e-007+j4.14142409003219740416e-004
  +2.69395805567915731937e-007+j4.23789017245425781322e-004
  +2.82092033382176100526e-007+j4.33660323308695291444e-004
  +2.95386615462583065503e-007+j4.43761561038285635202e-004
  +3.09307751327093104355e-007+j4.54098086188557323577e-004
  +3.23884969491191955841e-007+j4.64675379262399215145e-004
  +3.39149190101155469810e-007+j4.75499048416780671286e-004
  +3.55132790519079776600e-007+j4.86574832435965299541e-004
  +3.71869673998788255818e-007+j4.97908603773963257151e-004
  +3.89395341598283424997e-007+j5.09506371667836437632e-004
  +4.07746967481266429870e-007+j5.21374285323497805612e-004
  +4.26963477767444639240e-007+j5.33518637175702035817e-004
  +4.47085633098868441245e-007+j5.45945866223946892418e-004
  +4.68156115097421938131e-007+j5.58662561446054387222e-004
  +4.90219616896844402197e-007+j5.71675465291240979086e-004
  +5.13322937941300838654e-007+j5.84991477254522560317e-004
  +5.37515083251569012928e-007+j5.98617657534351800715e-004
  +5.62847367369385581059e-007+j6.12561230775420548049e-004
  +5.89373523200414782308e-007+j6.26829589898610290734e-004
  +6.17149815986693706250e-007+j6.41430300020119333396e-004
  +6.46235162650283626140e-007+j6.56371102461839137782e-004
  +6.76691256761255253930e-007+j6.71659918855105190529e-004
  +7.08582699395050031817e-007+j6.87304855339990043196e-004
  +7.41977136156770675400e-007+j7.03314206862369053694e-004
  +7.76945400663006749464e-007+j7.19696461571021450614e-004
  +8.13561664785519073607e-007+j7.36460305317105127718e-004
  +8.51903595975433893745e-007+j7.53614626258376427148e-004
  +8.92052522001611626269e-007+j7.71168519570596534655e-004
  +9.34093603452592536128e-007+j7.89131292268615658174e-004
  +9.78116014367962407892e-007+j8.07512468139679720665e-004
  +1.02421313138224454145e-006+j8.26321792791580083878e-004
  +1.07248273178245900601e-006+j8.45569238818302056256e-004
  +1.12302720089940041419e-006+j8.65265011085913807003e-004
  +1.17595374927247449712e-006+j8.85419552141485880631e-004
  +1.23137464004865790465e-006+j9.06043547747900136248e-004
  +1.28940742709785754458e-006+j9.27147932547475674310e-004
  +1.35017520434964318720e-006+j9.48743895857401329900e-004
  +1.41380686688016447452e-006+j9.70842887600041181545e-004
  +1.48043738430292156105e-006+j9.93456624371239806204e-004
  +1.55020808704320164978e-006+j1.01659709564983890412e-003
  +1.62326696610328381803e-006+j1.04027657015168164406e-003
  +1.69976898695410654833e-006+j1.06450760233145458843e-003
  +1.77987641821907776956e-006+j1.08930303903581127481e-003
  +1.86375917584703769148e-006+j1.11467602631127454815e-003
  +1.95159518350425065328e-006+j1.14064001637051957994e-003
  +2.04357074994965468638e-006+j1.16720877472071236924e-003
  +2.13988096419365335518e-006+j1.19439638745765419788e-003
  +2.24073010927835858405e-006+j1.22221726872958876345e-003
  +2.34633209555676571130e-006+j1.25068616837460135603e-003
  +2.45691091438960183244e-006+j1.27981817973563203467e-003
  +2.57270111322188543151e-006+j1.30962874765722775937e-003
  +2.69394829304659645452e-006+j1.34013367666823649677e-003
  +2.82090962931025551917e-006+j1.37134913935475690611e-003
  +2.95385441736492882468e-006+j1.40329168492775110434e-003
  +3.09306464362321702948e-006+j1.43597824798982298504e-003
  +3.23883558362718917349e-006+j1.46942615750577558822e-003
  +3.39147642829941438602e-006+j1.50365314598167160685e-003
  +3.55131093970375580837e-006+j1.53867735885720351499e-003
  +3.71867813770637620671e-006+j1.57451736411632617005e-003
  +3.89393301899263984052e-006+j1.61119216212118410506e-003
  +4.07744730996439582615e-006+j1.64872119567450363745e-003
  +4.26961025511370760176e-006+j1.68712436031572422107e-003
  +4.47082944254441635139e-006+j1.72642201485626706724e-003
  +4.68153166839156478492e-006+j1.76663499215946721323e-003
  +4.90216384197112651751e-006+j1.80778461017080710645e-003
  +5.13319393357876337406e-006+j1.84989268320423136914e-003
  +5.37511196694675752293e-006+j1.89298153349044774238e-003
  +5.62843105846268834105e-006+j1.93707400299324584286e-003
  +5.89368850535272920826e-006+j1.98219346550001325122e-003
  +6.17144692513587231580e-006+j2.02836383899275595269e-003
  +6.46229544876420366171e-006+j2.07560959830608215623e-003
  +6.76685096997787653749e-006+j2.12395578807874491067e-003
  +7.08575945352256106536e-006+j2.17342803600548790596e-003
  +7.41969730500177553810e-006+j2.22405256639610212840e-003
  +7.76937280526692382332e-006+j2.27585621404871726522e-003
  +8.13552761238460639891e-006+j2.32886643844457856892e-003
  +8.51893833436370431441e-006+j2.38311133827162797971e-003
  +8.92041817597455517200e-006+j2.43861966628444769636e-003
  +9.34081866314944968678e-006+j2.49542084450826316330e-003
  +9.78103144861760536604e-006+j2.55354497979486116943e-003
  +1.02419902025999426111e-005+j2.61302287973845569560e-003
  +1.07246725925686857379e-005+j2.67388606895972756952e-003
  +1.12301023562654930847e-005+j2.73616680576642921918e-003
  +1.17593514723688792004e-005+j2.79989809919912449251e-003
  +1.23135424334081885767e-005+j2.86511372647082433046e-003
  +1.28938506257377651185e-005+j2.93184825080946946663e-003
  +1.35015068216112260672e-005+j3.00013703971241342192e-003
  +1.41377997886325862842e-005+j3.07001628362220954985e-003
  +1.48040790221094305013e-005+j3.14152301503330209226e-003
  +1.55017576060925249245e-005+j3.21469512803927845099e-003
  +1.62323152091587619335e-005+j3.28957139833070937723e-003
  +1.69973012212783858115e-005+j3.36619150365366492927e-003
  +1.77983380384060214734e-005+j3.44459604473931757518e-003
  +1.86371245017463669775e-005+j3.52482656671519343702e-003
  +1.95154394989724889900e-005+j3.60692558100886729450e-003
  +2.04351457350161840574e-005+j3.69093658775514373016e-003
  +2.13981936804077789243e-005+j3.77690409871794243943e-003
  +2.24066257055174501808e-005+j3.86487366073840193231e-003
  +2.34625804094421300456e-005+j3.95489187972085376455e-003
  +2.45682971526923339645e-005+j4.04700644516864729838e-003
  +2.57261208032634740728e-005+j4.14126615528198800675e-003
  +2.69385067061250145005e-005+j4.23772094263018261895e-003
  +2.82080258866324490611e-005+j4.33642190041096890069e-003
  +2.95373704988591537950e-005+j4.43742130930980995668e-003
  +3.09293595303607591804e-005+j4.54077266497228924924e-003
  +3.23869447754251751632e-005+j4.64653070610301921484e-003
  +3.39132170894249738318e-005+j4.75475144320464289394e-003
  +3.55114129374816932532e-005+j4.86549218797087922039e-003
  +3.71849212512684624827e-005+j4.97881158334769445550e-003
  +3.89372906084264663786e-005+j5.09476963427700491049e-003
  +4.07722367497472771235e-005+j5.21342773913752600273e-003
  +4.26936504499832758281e-005+j5.33484872189769060435e-003
  +4.47056057588887689226e-005+j5.45909686499573224699e-003
  +4.68123686298731661376e-005+j5.58623794296233405765e-003
  +4.90184059544577433918e-005+j5.71633925680146461057e-003
  +5.13283950215795206347e-005+j5.84946966914530203790e-003
  +5.37472334216745458650e-005+j5.98569964019934289828e-003
  +5.62800494164033049730e-005+j6.12510126449404557203e-003
  +5.89322127958553224395e-005+j6.26774830845962856868e-003
  +6.17093462460884971182e-005+j6.41371624884082888046e-003
  +6.46173372509239459611e-005+j6.56308231196866057044e-003
  +6.76623505530332875792e-005+j6.71592551390646531895e-003
  +7.08508412005193037586e-005+j6.87232670148769150126e-003
  +7.41895682064132262539e-005+j7.03236859426311245597e-003
  +7.76856088497856101145e-005+j7.19613582737532123806e-003
  +8.13463736485030785260e-005+j7.36371499537855165457e-003
  +8.51796220350593580621e-005+j7.53519469702207140421e-003
  +8.91934787683667195095e-005+j7.71066558101545125592e-003
  +9.33964511159214854242e-005+j7.89022039279427093994e-003
  +9.77974468423522218371e-005+j8.07395402230484497685e-003
  +1.02405793042028184594e-004+j8.26196355282670519271e-003
  +1.07231255855148445801e-004+j8.45434831085164345543e-003
  +1.12284061108557312448e-004+j8.65120991703814505580e-003
  +1.17574915924436578939e-004+j8.85265233826016025021e-003
  +1.23115031342017200574e-004+j9.05878194076899581622e-003
  +1.28916145999536242402e-004+j9.26970754448729755692e-003
  +1.34990550925838972930e-004+j9.48554047845386050231e-003
  +1.41351115493301834544e-004+j9.70639463743790641137e-003
  +1.48011314586125381680e-004+j9.93238653974149766912e-003
  +1.54985257040528897482e-004+j1.01636353862083247263e-002
  +1.62287715415972963245e-004+j1.04002631204571129031e-002
  +1.69934157159238262945e-004+j1.06423944903573930443e-002
  +1.77940777226022928299e-004+j1.08901571107651532616e-002
  +1.86324532227670843941e-004+j1.11436815275355628752e-002
  +1.95103176173721517758e-004+j1.14031012828292137307e-002
  +2.04295297884201742904e-004+j1.16685529817281505999e-002
  +2.13920360148923147190e-004+j1.19401763601769822509e-002
  +2.23998740714567582191e-004+j1.22181143542639189525e-002
  +2.34551775183991620443e-004+j1.25025131708556540983e-002
  +2.45601801916000802347e-004+j1.27935223595991246631e-002
  +2.57172209017822212158e-004+j1.30912948863022571278e-002
  +2.69287483526649382322e-004+j1.33959872077044819111e-002
  +2.81973262880971038864e-004+j1.37077593476469025008e-002
  +2.95256388786888188547e-004+j1.40267749746501822761e-002
  +3.09164963589340327944e-004+j1.43532014809071659794e-002
  +3.23728409263043825396e-004+j1.46872100626950895935e-002
  +3.38977529143052146166e-004+j1.50289758022107908242e-002
  +3.54944572520156495423e-004+j1.53786777508300807199e-002
  +3.71663302231869084342e-004+j1.57364990137902095724e-002
  +3.89169065385492024371e-004+j1.61026268362921137767e-002
  +4.07498867355746152447e-004+j1.64772526910162177283e-002
  +4.26691449205670529209e-004+j1.68605723670428309102e-002
  +4.46787368685963028839e-004+j1.72527860601650283312e-002
  +4.67829084974661810973e-004+j1.76540984645783133322e-002
  +4.89861047326049727120e-004+j1.80647188659279304968e-002
  +5.12929787804904829297e-004+j1.84848612356901149945e-002
  +5.37084018289773730895e-004+j1.89147443268599391164e-002
  +5.62374731936705939475e-004+j1.93545917709127372752e-002
  +5.88855309303024164296e-004+j1.98046321760016984237e-002
  +6.16581629339068540592e-004+j2.02650992263482543354e-002
  +6.45612185464536684175e-004+j2.07362317827758692312e-002
  +6.76008206955036085317e-004+j2.12182739843313691863e-002
  +7.07833785873759565622e-004+j2.17114753509309449386e-002
  +7.41156009792797517040e-004+j2.22160908869602838345e-002
  +7.76045100558514261598e-004+j2.27323811857500293621e-002
  +8.12574559365677735571e-004+j2.32606125348393047436e-002
  +8.50821318415539680838e-004+j2.38010570219298507599e-002
  +8.90865899443972226318e-004+j2.43539926414237627161e-002
  +9.32792579416924809085e-004+j2.49197034014265114688e-002
  +9.76689563701954675118e-004+j2.54984794310848840448e-002
  +1.02264916703639950971e-003+j2.60906170881173189724e-002
  +1.07076800262481349781e-003+j2.66964190663797479308e-002
  +1.12114717971070732526e-003+j2.73161945032959901924e-002
  +1.17389250998024136097e-003+j2.79502590869656585004e-002
  +1.22911472316845362361e-003+j2.85989351627455937188e-002
  +1.28692969225175897832e-003+j2.92625518390833457005e-002
  +1.34745866862375656726e-003+j2.99414450923607723676e-002
  +1.41082852766500959837e-003+j3.06359578704861086618e-002
  +1.47717202513110651765e-003+j3.13464401949499621436e-002
  +1.54662806479716327321e-003+j3.20732492610372108000e-002
  +1.61934197781082194791e-003+j3.28167495358612157363e-002
  +1.69546581421972371133e-003+j3.35773128538595505566e-002
  +1.77515864715335302919e-003+j3.43553185093614238399e-002
  +1.85858689015293504845e-003+j3.51511533458061034563e-002
  +1.94592462815678149922e-003+j3.59652118411582094604e-002
  +2.03735396266178534971e-003+j3.67978961890307390559e-002
  +2.13306537159496873227e-003+j3.76496163749886689209e-002
  +2.23325808444152073412e-003+j3.85207902474662411407e-002
  +2.33814047318794656152e-003+j3.94118435826880733619e-002
  +2.44793045965030009806e-003+j4.03232101429385481062e-002
  +2.56285593976813674127e-003+j4.12553317274759814848e-002
  +2.68315522545440254473e-003+j4.22086582153360020953e-002
  +2.80907750460001508566e-003+j4.31836475992146834324e-002
  +2.94088331983897999233e-003+j4.41807660095628676467e-002
  +3.07884506668555484044e-003+j4.52004877279628056175e-002
  +3.22324751165867619609e-003+j4.62432951887914583944e-002
  +3.37438833101071566575e-003+j4.73096789681070398204e-002
  +3.53257867067700978211e-003+j4.84001377586209327597e-002
  +3.69814372805940972527e-003+j4.95151783295407418861e-002
  +3.87142335625088136394e-003+j5.06553154699872498767e-002
  +4.05277269129860912705e-003+j5.18210719146024803572e-002
  +4.24256280308982127586e-003+j5.30129782498750048991e-002
  +4.44118137042680532350e-003+j5.42315727996110358289e-002
  +4.64903338083562465283e-003+j5.54774014878817722796e-002
  +4.86654185562528530246e-003+j5.67510176776678670896e-002
  +5.09414860068098385160e-003+j5.80529819833127611051e-002
  +5.33231498343537599349e-003+j5.93838620547789478032e-002
  +5.58152273641489109213e-003+j6.07442323315787041649e-002
  +5.84227478770363208710e-003+j6.21346737641234533878e-002
  +6.11509611860403239775e-003+j6.35557735001018864196e-002
  +6.40053464870089187239e-003+j6.50081245333589685664e-002
  +6.69916214845233011499e-003+j6.64923253126025320947e-002
  +7.01157517933669819504e-003+j6.80089793071153442261e-002
  +7.33839606147816767706e-003+j6.95586945264955736068e-002
  +7.68027386855296787666e-003+j7.11420829912881858004e-002
  +8.03788544964392781544e-003+j7.27597601512059710682e-002
  +8.41193647755987712611e-003+j7.44123442474706742189e-002
  +8.80316252296879826755e-003+j7.61004556156317096827e-002
  +9.21233015350678141608e-003+j7.78247159250451681078e-002
  +9.64023805681843599935e-003+j7.95857473510185736698e-002
  +1.00877181862559835851e-002+j8.13841716754472449535e-002
  +1.05556369277127540252e-002+j8.32206093115890471745e-002
  +1.10448962857907211771e-002+j8.50956782484473400752e-002
  +1.15564350871982142455e-002+j8.70099929100532493154e-002
  +1.20912301989430752414e-002+j8.89641629247692189431e-002
  +1.26502977585247582126e-002+j9.09587917995680478311e-002
  +1.32346944129353855102e-002+j9.29944754940841000757e-002
  +1.38455185628524792690e-002+j9.50718008890860805105e-002
  +1.44839116079430122591e-002+j9.71913441438861103183e-002
  +1.51510591886982147469e-002+j9.93536689370824038781e-002
  +1.58481924196789102088e-002+j1.01559324584934607127e-001
  +1.65765891084707940595e-002+j1.03808844031595515212e-001
  +1.73375749540275007898e-002+j1.06102741705379491344e-001
  +1.81325247174119706661e-002+j1.08441511235229562371e-001
  +1.89628633572377081062e-002+j1.10825623021573255178e-001
  +1.98300671213549987992e-002+j1.13255521655822866123e-001
  +2.07356645855259653921e-002+j1.15731623182893289536e-001
  +2.16812376289853246669e-002+j1.18254312201285155526e-001
  +2.26684223358917698310e-002+j1.20823938795516921951e-001
  +2.36989098107381890301e-002+j1.23440815296000441781e-001
  +2.47744468948108871598e-002+j1.26105212861840565441e-001
  +2.58968367697703788499e-002+j1.28817357882520827639e-001
  +2.70679394333714178067e-002+j1.31577428195007173350e-001
  +2.82896720312554583732e-002+j1.34385549113490265771e-001
  +2.95640090276374986611e-002+j1.37241789269785113836e-001
  +3.08929821965793389993e-002+j1.40146156263338372838e-001
  +3.22786804144024677687e-002+j1.43098592120863205013e-001
  +3.37232492326539692873e-002+j1.46098968566841513894e-001
  +3.52288902099121073452e-002+j1.49147082107515677185e-001
  +3.67978599796172922698e-002+j1.52242648932546742468e-001
  +3.84324690300551288780e-002+j1.55385299640251078879e-001
  +4.01350801716204089176e-002+j1.58574573794260015314e-001
  +4.19081066655723616377e-002+j1.61809914321574377372e-001
  +4.37540099876786645061e-002+j1.65090661764328405781e-001
  +4.56752971994615966644e-002+j1.68416048400130996532e-001
  +4.76745178992332707679e-002+j1.71785192248627399669e-001
  +4.97542607247689824823e-002+j1.75197090984918202317e-001
  +5.19171493793529961747e-002+j1.78650615783687183313e-001
  +5.41658381530725624442e-002+j1.82144505121318966978e-001
  +5.65030069116738073443e-002+j1.85677358566919886718e-001
  +5.89313555260706778416e-002+j1.89247630596987015394e-001
  +6.14535977167458419279e-002+j1.92853624472462514827e-001
  +6.40724542888618520120e-002+j1.96493486221069435516e-001
  +6.67906457359359329029e-002+j2.00165198772082553180e-001
  +6.96108841924810428647e-002+j2.03866576295040735634e-001
  +7.25358647191126082454e-002+j2.07595258798282000789e-001
  +7.55682559073114212822e-002+j2.11348707047542688775e-001
  +7.87106897953494116793e-002+j2.15124197869137612216e-001
  +8.19657510918657405963e-002+j2.18918819906352840610e-001
  +8.53359657092460088812e-002+j2.22729469901569998580e-001
  +8.88237886153341177353e-002+j2.26552849580198056856e-001
  +9.24315910190915135392e-002+j2.30385463215615510224e-001
  +9.61616469136264556683e-002+j2.34223615956938330251e-001
  +1.00016119008517978539e-001+j2.38063413003382934319e-001
  +1.03997044092530341319e-001+j2.41900759710195673025e-001
  +1.08106317877607660538e-001+j2.45731362711432144152e-001
  +1.12345679385390362359e-001+j2.49550732144178111227e-001
  +1.16716694948308191693e-001+j2.53354185056971881185e-001
  +1.21220741908488971461e-001+j2.57136850082107348836e-001
</dep>
<dep S[4,4] frequency>
  -7.40220166828287062799e-008-j1.57079597859448625392e-004
  -7.75105659656105672184e-008-j1.60738450040610929498e-004
  -8.11635255670850597198e-008-j1.64482527717287242306e-004
  -8.49886436227187402892e-008-j1.68313816037697578992e-004
  -8.89940339754424769581e-008-j1.72234346389489253754e-004
  -9.31881924404187600430e-008-j1.76246197476748731915e-004
  -9.75800152347439109235e-008-j1.80351496422095116919e-004
  -1.02178818517373315444e-007-j1.84552419894442421922e-004
  -1.06994356319223271612e-007-j1.88851195263027397953e-004
  -1.12036843136209540717e-007-j1.93250101778312999203e-004
  -1.17316975078995966442e-007-j1.97751471780396458240e-004
  -1.22845951799899211210e-007-j2.02357691935557964125e-004
  -1.28635500806772995475e-007-j2.07071204501609815998e-004
  -1.34697902776093059174e-007-j2.11894508622712890661e-004
  -1.41046016643997518258e-007-j2.16830161654347645722e-004
  -1.47693307639418236477e-007-j2.21880780519142871811e-004
  -1.54653875650279104548e-007-j2.27049043094278688894e-004
  -1.61942484644406192729e-007-j2.32337689631199580467e-004
  -1.69574595032528918637e-007-j2.37749524208390335643e-004
  -1.77566395254125097836e-007-j2.43287416217982595560e-004
  -1.85934837138024278147e-007-j2.48954301886981682786e-004
  -1.94697670874433015342e-007-j2.54753185833918273026e-004
  -2.03873483817229583792e-007-j2.60687142661749011226e-004
  -2.13481738953191779729e-007-j2.66759318587851126329e-004
  -2.23542816479849193456e-007-j2.72972933111973500419e-004
  -2.34078057659292682047e-007-j2.79331280723027247821e-004
  -2.45109808505450388338e-007-j2.85837732645620489543e-004
  -2.56661469022478883062e-007-j2.92495738627261225948e-004
  -2.68757541721509340960e-007-j2.99308828767175846147e-004
  -2.81423683745618546936e-007-j3.06280615387710219814e-004
  -2.94686761548312858849e-007-j3.13414794949305199577e-004
  -3.08574908070013975703e-007-j3.20715150010059666698e-004
  -3.23117581302323486625e-007-j3.28185551230919677311e-004
  -3.38345628403402542972e-007-j3.35829959427552541054e-004
  -3.54291349868862681660e-007-j3.43652427669994913178e-004
  -3.70988568088037595771e-007-j3.51657103431184526847e-004
  -3.88472700341147003655e-007-j3.59848230785510833727e-004
  -4.06780832407083181579e-007-j3.68230152658552618069e-004
  -4.25951797999868375655e-007-j3.76807313129188213574e-004
  -4.46026261091692077798e-007-j3.85584259785298267328e-004
  -4.67046801733150829250e-007-j3.94565646134307829087e-004
  -4.89058007313580844766e-007-j4.03756234069839914542e-004
  -5.12106565764280929898e-007-j4.13160896395789933519e-004
  -5.36241365867162755876e-007-j4.22784619409151082338e-004
  -5.61513600505492149750e-007-j4.32632505542956849291e-004
  -5.87976874688589390416e-007-j4.42709776070742831895e-004
  -6.15687319960311896239e-007-j4.53021773873950122334e-004
  -6.44703713581495918561e-007-j4.63573966273737728735e-004
  -6.75087602264312636180e-007-j4.74371947928700556530e-004
  -7.06903433567163119733e-007-j4.85421443800020590773e-004
  -7.40218692119043453204e-007-j4.96728312185619903102e-004
  -7.75104043559959876575e-007-j5.08298547824919452059e-004
  -8.11633482922236026980e-007-j5.20138285075840713610e-004
  -8.49884493447916611331e-007-j5.32253801165727185793e-004
  -8.89938209125418211443e-007-j5.44651519517905637405e-004
  -9.31879587939832276788e-007-j5.57338013155637057236e-004
  -9.75797591784566265005e-007-j5.70320008185259898388e-004
  -1.02178537497721322325e-006-j5.83604387360355967782e-004
  -1.06994048187925017146e-006-j5.97198193728826990517e-004
  -1.12036505472978831222e-006-j6.11108634364794381724e-004
  -1.17316604780759448090e-006-j6.25343084187300894856e-004
  -1.22845545719174609189e-006-j6.39909089867815800493e-004
  -1.28635055657300156895e-006-j6.54814373828613879684e-004
  -1.34697414649886937354e-006-j6.70066838334118356803e-004
  -1.41045481460988497702e-006-j6.85674569677378453053e-004
  -1.47692720880998606958e-006-j7.01645842463875552171e-004
  -1.54653232187218492300e-006-j7.17989123994911709360e-004
  -1.61941779180940770289e-006-j7.34713078752887902532e-004
  -1.69573821423574244704e-006-j7.51826572990836020267e-004
  -1.77565546988223132985e-006-j7.69338679428601540655e-004
  -1.85933906898805290098e-006-j7.87258682058162868184e-004
  -1.94696650951398098073e-006-j8.05596081060592052528e-004
  -2.03872365511781339364e-006-j8.24360597837251818723e-004
  -2.13480512745167771982e-006-j8.43562180157862110536e-004
  -2.23541472132993135347e-006-j8.63211007428133533619e-004
  -2.34076583421893857917e-006-j8.83317496079733823454e-004
  -2.45108192092891030711e-006-j9.03892305085403770064e-004
  -2.56659696667993486585e-006-j9.24946341602115467730e-004
  -2.68755598348269231224e-006-j9.46490766745223762769e-004
  -2.81421552927874074612e-006-j9.68537001496623029852e-004
  -2.94684425261593219147e-006-j9.91096732750006625609e-004
  -3.08572346263691343893e-006-j1.01418191949637775950e-003
  -3.23114772449173415225e-006-j1.03780479915304064444e-003
  -3.38342548494852124463e-006-j1.06197789403937267218e-003
  -3.54287972681444074396e-006-j1.08671401800274395298e-003
  -3.70984865244450290334e-006-j1.11202628319805084736e-003
  -3.88468640261097064581e-006-j1.13792810702435863261e-003
  -4.06776380629247924503e-006-j1.16443321922228885078e-003
  -4.25946916715602696968e-006-j1.19155566913581398986e-003
  -4.46020908800859317012e-006-j1.21930983314222363134e-003
  -4.67040933155304927027e-006-j1.24771042225413179849e-003
  -4.89051572444276771989e-006-j1.27677248989743058472e-003
  -5.12099510124874868211e-006-j1.30651143986922828148e-003
  -5.36233629633287023353e-006-j1.33694303447986378476e-003
  -5.61505117813165810503e-006-j1.36808340288321417591e-003
  -5.87967573623116024351e-006-j1.39994904959956246310e-003
  -6.15677121668101179353e-006-j1.43255686323541216523e-003
  -6.44692531298618476399e-006-j1.46592412540473495015e-003
  -6.75075341072250978414e-006-j1.50006851985620692780e-003
  -7.06889989438019838985e-006-j1.53500814181110477492e-003
  -7.40203951105078417072e-006-j1.57076150751665104613e-003
  -7.75087880289238029263e-006-j1.60734756401963965917e-003
  -8.11615760459849511221e-006-j1.64478569916535425494e-003
  -8.49865061053334258645e-006-j1.68309575182683203096e-003
  -8.89916901913867519625e-006-j1.72229802236965857075e-003
  -9.31856225083738110015e-006-j1.76241328335759715219e-003
  -9.75771974948136389116e-006-j1.80346279050443299673e-003
  -1.02175728674547272590e-005-j1.84546829387757164824e-003
  -1.06990968402054242858e-005-j1.88845204935897143655e-003
  -1.12033128527588843326e-005-j1.93243683036920139984e-003
  -1.17312902048194445115e-005-j1.97744593986042644859e-003
  -1.22841485762914537361e-005-j2.02350322258432408287e-003
  -1.28630604016577443360e-005-j2.07063307764099400338e-003
  -1.34692533531044489337e-005-j2.11886047131509130947e-003
  -1.41040129433833705264e-005-j2.16821095020548314930e-003
  -1.47686852494111064971e-005-j2.21871065465490497834e-003
  -1.54646797652646661447e-005-j2.27038633248614462462e-003
  -1.61934723877932285063e-005-j2.32326535305150917374e-003
  -1.69566085446715142382e-005-j2.37737572160232144697e-003
  -1.77557064687805521430e-005-j2.43274609398543917652e-003
  -1.85924606257992230951e-005-j2.48940579167384722775e-003
  -1.94686453042214324682e-005-j2.54738481713850202157e-003
  -2.03861183747378049702e-005-j2.60671386956876300137e-003
  -2.13468252250881285192e-005-j2.66742436094884486850e-003
  -2.23528028794883759645e-005-j2.72954843249786612350e-003
  -2.34061843148447579210e-005-j2.79311897148116746251e-003
  -2.45092029773075203991e-005-j2.85816962840073143792e-003
  -2.56641975108218289847e-005-j2.92473483457265058527e-003
  -2.68736167108318824148e-005-j2.99284982009967101546e-003
  -2.81400247082452814595e-005-j3.06255063224702278601e-003
  -2.94661063979795301293e-005-j3.13387415422981428434e-003
  -3.08546731231373883020e-005-j3.20685812442041357287e-003
  -3.23086686256357502600e-005-j3.28154115598433071890e-003
  -3.38311752766107254331e-005-j3.35796275695323265947e-003
  -3.54254206002546645493e-005-j3.43616335074384531695e-003
  -3.70947841033530956167e-005-j3.51618429713155622798e-003
  -3.88428044249544690558e-005-j3.59806791368765975167e-003
  -4.06731868241583249812e-005-j3.68185749768927582729e-003
  -4.25898110175126909382e-005-j3.76759734851103613579e-003
  -4.45967393840618342438e-005-j3.85533279050772606164e-003
  -4.66982255579728722239e-005-j3.94511019639713633733e-003
  -4.88987234212312493753e-005-j4.03697701115242162107e-003
  -5.12028965211630548993e-005-j4.13098177641335172899e-003
  -5.36156279275501468362e-005-j4.22717415542582259508e-003
  -5.61420305542625897033e-005-j4.32560495851907339526e-003
  -5.87874579623393067607e-005-j4.42632616913007925774e-003
  -6.15575156710512771951e-005-j4.52939097038449704075e-003
  -6.44580729998178725282e-005-j4.63485377224365051319e-003
  -6.74952754629032369849e-005-j4.74277023922693111851e-003
  -7.06755577466466888836e-005-j4.85319731871895407305e-003
  -7.40056572931524492276e-005-j4.96619326987074883456e-003
  -7.74926285203592080109e-005-j5.08181769310416236313e-003
  -8.11438577081324829976e-005-j5.20013156022855558419e-003
  -8.49670785796341476726e-005-j5.32119724517869652214e-003
  -8.89703886129411536388e-005-j5.44507855538257576344e-003
  -9.31622661138331586983e-005-j5.57184076376777970285e-003
  -9.75515880869415319410e-005-j5.70155064141460773269e-003
  -1.02147648942174651410e-004-j5.83427649086407443257e-003
  -1.06960180074500144087e-004-j5.97008818008848852338e-003
  -1.11999370357218630545e-004-j6.10905717713195947627e-003
  -1.17275887591972161061e-004-j6.25125658542782618177e-003
  -1.22800900958119907358e-004-j6.39676117979956319892e-003
  -1.28586104508943144253e-004-j6.54564744315112943124e-003
  -1.34643741763418312019e-004-j6.69799360385223922082e-003
  -1.40986631440465082221e-004-j6.85387967382345038303e-003
  -1.47628194393456535494e-004-j7.01338748732509113804e-003
  -1.54582481794673931574e-004-j7.17660074045358298972e-003
  -1.61864204631601005246e-004-j7.34360503134754479676e-003
  -1.69488764571679162430e-004-j7.51448790110539454473e-003
  -1.77472286259972023004e-004-j7.68933887541504122731e-003
  -1.85831651115853091483e-004-j7.86824950689510652091e-003
  -1.94584532692720912905e-004-j8.05131341814605862306e-003
  -2.03749433677902214157e-004-j8.23862634550810712941e-003
  -2.13345724602909125878e-004-j8.43028618352141545511e-003
  -2.23393684342987342006e-004-j8.62639303008251590033e-003
  -2.33914542487334564669e-004-j8.82704923228915493139e-003
  -2.44930523663089427799e-004-j9.03235943296396351365e-003
  -2.56464893902463852982e-004-j9.24243061784505229306e-003
  -2.68542009145000815096e-004-j9.45737216342996955820e-003
  -2.81187365968271762995e-004-j9.67729588545636863761e-003
  -2.94427654651430170674e-004-j9.90231608800084921185e-003
  -3.08290814669542889703e-004-j1.01325496131741271677e-002
  -3.22806092732219607200e-004-j1.03681158913879363503e-002
  -3.38004103477507200637e-004-j1.06091369921656828584e-002
  -3.53916892936900762123e-004-j1.08557376754654724693e-002
  -3.70578004896371382415e-004-j1.11080454434801401825e-002
  -3.88022550279309985655e-004-j1.13661905928750146810e-002
  -4.06287279682893132104e-004-j1.16303062674196523718e-002
  -4.25410659207758889977e-004-j1.19005285109649253800e-002
  -4.45432949722102122792e-004-j1.21769963207118813581e-002
  -4.66396289708403966046e-004-j1.24598517007132592038e-002
  -4.88344781850946763058e-004-j1.27492397155424402877e-002
  -5.11324583518213415800e-004-j1.30453085440586560168e-002
  -5.35384001312366741843e-004-j1.33482095331898739654e-002
  -5.60573589855450915564e-004-j1.36580972516479898921e-002
  -5.86946254990172722188e-004-j1.39751295434828292502e-002
  -6.14557361584389116871e-004-j1.42994675813727933900e-002
  -6.43464846125818556999e-004-j1.46312759195416763197e-002
  -6.73729334311923278023e-004-j1.49707225461803861838e-002
  -7.05414263832582211222e-004-j1.53179789352430543309e-002
  -7.38586012565600746882e-004-j1.56732200974749776023e-002
  -7.73314032398608741659e-004-j1.60366246305186019305e-002
  -8.09670988905497601706e-004-j1.64083747679306043987e-002
  -8.47732907109877142915e-004-j1.67886564269297752783e-002
  -8.87579323576803691509e-004-j1.71776592546807084505e-002
  -9.29293445076473378919e-004-j1.75755766729030413198e-002
  -9.72962314078507084503e-004-j1.79826059205791047302e-002
  -1.01867698133095707647e-003-j1.83989480945153625890e-002
  -1.06653268579748328193e-003-j1.88248081874943309910e-002
  -1.11662904222076253546e-003-j1.92603951237331136315e-002
  -1.16907023659396092086e-003-j1.97059217913440401504e-002
  -1.22396522982520794542e-003-j2.01616050714692775225e-002
  -1.28142796988406360015e-003-j2.06276658637379907424e-002
  -1.34157761272718500933e-003-j2.11043291076680079865e-002
  -1.40453875229995528429e-003-j2.15918237996073382468e-002
  -1.47044165991949693506e-003-j2.20903830047814303539e-002
  -1.53942253334277134869e-003-j2.26002438639814028087e-002
  -1.61162375582946104657e-003-j2.31216475943957291972e-002
  -1.68719416550539014210e-003-j2.36548394840535199102e-002
  -1.76628933533856669058e-003-j2.42000688793104663799e-002
  -1.84907186402971657202e-003-j2.47575891647703640042e-002
  -1.93571167812545130715e-003-j2.53276577349936284078e-002
  -2.02638634564938913130e-003-j2.59105359573012401786e-002
  -2.12128140154488331603e-003-j2.65064891249375024496e-002
  -2.22059068521329727730e-003-j2.71157863998055179144e-002
  -2.32451669041788822057e-003-j2.77387007439408826703e-002
  -2.43327092781264742172e-003-j2.83755088388339335448e-002
  -2.54707430034062376478e-003-j2.90264909916563770831e-002
  -2.66615749171777993709e-003-j2.96919310273894704322e-002
  -2.79076136820743947453e-003-j3.03721161657893590213e-002
  -2.92113739385174708829e-003-j3.10673368820617301633e-002
  -3.05754805930208428677e-003-j3.17778867500509432098e-002
  -3.20026732435052529979e-003-j3.25040622666794842832e-002
  -3.34958107422617112903e-003-j3.32461626563012660474e-002
  -3.50578758966840764444e-003-j3.40044896535576651742e-002
  -3.66919803073922912162e-003-j3.47793472632477798645e-002
  -3.84013693427659452695e-003-j3.55710414956440859613e-002
  -4.01894272482195002993e-003-j3.63798800756029924730e-002
  -4.20596823878000014574e-003-j3.72061721237353301706e-002
  -4.40158126148432193858e-003-j3.80502278078158617802e-002
  -4.60616507675326580795e-003-j3.89123579625225840539e-002
  -4.82011902840917549895e-003-j3.97928736755092868349e-002
  -5.04385909312793367931e-003-j4.06920858377236224768e-002
  -5.27781846385633190977e-003-j4.16103046557945235873e-002
  -5.52244814289537533369e-003-j4.25478391242236700376e-002
  -5.77821754359908457133e-003-j4.35049964550266315966e-002
  -6.04561509947154629430e-003-j4.44820814623846094715e-002
  -6.32514887926244329108e-003-j4.54793958997840308545e-002
  -6.61734720646767193841e-003-j4.64972377470420430989e-002
  -6.92275928142621621575e-003-j4.75359004445430402552e-002
  -7.24195580397146709828e-003-j4.85956720719430620981e-002
  -7.57552959434915074155e-003-j4.96768344685411950001e-002
  -7.92409620983958173923e-003-j5.07796622924672966248e-002
  -8.28829455423540917280e-003-j5.19044220157977576058e-002
  -8.66878747701377294632e-003-j5.30513708526897387330e-002
  -9.06626235870600094557e-003-j5.42207556176147881244e-002
  -9.48143167861886793091e-003-j5.54128115107866275890e-002
  -9.91503356067735541757e-003-j5.66277608279114400003e-002
  -1.03678322927629462669e-002-j5.78658115914466378293e-002
  -1.08406188144925530459e-002-j5.91271561006425847018e-002
  -1.13342111679458623641e-002-j6.04119693977584470979e-002
  -1.18494549053689834928e-002-j6.17204076480002347682e-002
  -1.23872234474052822506e-002-j6.30526064309203104763e-002
  -1.29484183848853073862e-002-j6.44086789412603999416e-002
  -1.35339697166857453325e-002-j6.57887140975035866752e-002
  -1.41448360156277708199e-002-j6.71927745567451328856e-002
  -1.47820045138187250444e-002-j6.86208946348925430403e-002
  -1.54464910982896608260e-002-j7.00730781316691725413e-002
  -1.61393402072012581705e-002-j7.15492960604316025064e-002
  -1.68616246163270644409e-002-j7.30494842834207291915e-002
  -1.76144451049560779587e-002-j7.45735410537578247148e-002
  -1.83989299898086877683e-002-j7.61213244662733434787e-002
  -1.92162345150275748473e-002-j7.76926498201255394394e-002
  -2.00675400858100760892e-002-j7.92872868971300215346e-002
  -2.09540533327862155133e-002-j8.09049571607872025636e-002
  -2.18770049938393218447e-002-j8.25453308821642028903e-002
  -2.28376485997308642517e-002-j8.42080242000654705103e-002
  -2.38372589496164688505e-002-j8.58925961243137137124e-002
  -2.48771303623844808328e-002-j8.75985454924590872805e-002
  -2.59585746896764391067e-002-j8.93253078918435916567e-002
  -2.70829190765362604054e-002-j9.10722525606594834890e-002
  -2.82515034558369904083e-002-j9.28386792834599572366e-002
  -2.94656777630353250430e-002-j9.46238152984935076972e-002
  -3.07267988583730944363e-002-j9.64268122362312296580e-002
  -3.20362271444309398838e-002-j9.82467431105347038800e-002
  -3.33953228679679248181e-002-j1.00082599386041262712e-001
  -3.48054420962405908213e-002-j1.01933288147520395572e-001
  -3.62679323595562208560e-002-j1.03797629399141014273e-001
  -3.77841279536556551299e-002-j1.05674353523771330510e-001
  -3.93553448976747266563e-002-j1.07562098934568792230e-001
  -4.09828755459327731536e-002-j1.09459409953176392549e-001
  -4.26679828546229766850e-002-j1.11364734950785013168e-001
  -4.44118943076671213177e-002-j1.13276424790099014550e-001
  -4.62157955095457984029e-002-j1.15192731607807755112e-001
  -4.80808234568133041620e-002-j1.17111807978469137370e-001
  -5.00080595042590170252e-002-j1.19031706501691453282e-001
  -5.19985220462652053541e-002-j1.20950379855097864268e-001
  -5.40531589388037470023e-002-j1.22865681355716085954e-001
  -5.61728396926951534240e-002-j1.24775366072089041736e-001
  -5.83583474741541929909e-002-j1.26677092528485968348e-001
  -6.06103709542444857306e-002-j1.28568425041053674418e-001
</dep>
